{
  "cordova-plugin-fullscreen": {
    "source": {
      "type": "registry",
      "id": "cordova-plugin-fullscreen"
    },
    "is_top_level": true,
    "variables": {}
  },
  "cordova-plugin-insomnia": {
    "source": {
      "type": "registry",
      "id": "cordova-plugin-insomnia"
    },
    "is_top_level": true,
    "variables": {}
  },
  "cordova-plugin-splashscreen": {
    "source": {
      "type": "registry",
      "id": "cordova-plugin-splashscreen@5.0.2"
    },
    "is_top_level": true,
    "variables": {}
  },
  "cordova-plugin-advanced-http": {
    "source": {
      "type": "registry",
      "id": "cordova-plugin-advanced-http"
    },
    "is_top_level": true,
    "variables": {
      "ANDROIDBLACKLISTSECURESOCKETPROTOCOLS": "SSLv3,TLSv1"
    }
  },
  "cordova-plugin-file": {
    "source": {
      "type": "registry",
      "id": "cordova-plugin-file@>=2.0.0"
    },
    "is_top_level": false,
    "variables": {}
  },
  "cordova-plugin-app-version": {
    "source": {
      "type": "registry",
      "id": "cordova-plugin-app-version"
    },
    "is_top_level": true,
    "variables": {
      "ANDROIDBLACKLISTSECURESOCKETPROTOCOLS": "SSLv3,TLSv1"
    }
  },
  "cordova-plugin-device": {
    "source": {
      "type": "registry",
      "id": "cordova-plugin-device"
    },
    "is_top_level": true,
    "variables": {
      "ANDROIDBLACKLISTSECURESOCKETPROTOCOLS": "SSLv3,TLSv1"
    }
  },
  "cordova-plugin-inappbrowser": {
    "source": {
      "type": "registry",
      "id": "cordova-plugin-inappbrowser@5.0.0"
    },
    "is_top_level": true,
    "variables": {}
  }
}